Modelo-de-Producao-de-Viagens—Regressao-Linear-V5.R
…
## Warning in read_fun(path = enc2native(normalizePath(path)), sheet_i = sheet, :
## Expecting numeric in G82566 / R82566C7: got '16:40'

## Warning in read_fun(path = enc2native(normalizePath(path)), sheet_i = sheet, :
## Expecting numeric in I82566 / R82566C9: got '17:00'

dados_viagens <- viagens %>%
  filter(`Motivo Origem` == "Trabalho" & `Motivo Destino` == "Residência" | `Motivo Origem` == "Residência" & `Motivo Destino` == "Trabalho") %>%
  group_by(`Identificador Domicílio`) %>%
  summarise(n()) %>%
  setNames(c("domicilio", "viagens.obs"))
dados_viagens

## # A tibble: 13,737 x 2
##    domicilio           viagens.obs
##    <chr>                     <int>
##  1 230100005000001-001           2
##  2 230100005000001-004           4
##  3 230100005000001-005           2
##  4 230100005000001-007           2
##  5 230100005000001-008           2
##  6 230100005000003-001           4
##  7 230100005000003-002           6
##  8 230100005000005-001           2
##  9 230100005000005-002           2
## 10 230100005000005-003           4
## # … with 13,727 more rows
…
domicilios <- read_xlsx("Banco OD Domiciliar - Versao Final.xlsx", sheet = "DOMICILIOS")

## New names:
## * `` -> ...14
## * `` -> ...15

dados_domicilios <- domicilios %>% filter(Município == "Fortaleza") %>%
  mutate(veic = Automóveis + Motocicletas + Bicicletas) %>%
  select(`Identificador Domicílio`, `Zona Domicílio`, veic, `Moradores Domicílio`, `Latitude Setor Censitário`, `Longitude Setor Censitário`, `Fator Domicílio`) %>%
  setNames(c("domicilio", "zona", "veiculos", "moradores", "lat", "long", "ft.exp.dom"))

dados_domicilios

## # A tibble: 18,553 x 7
##    domicilio            zona veiculos moradores   lat  long ft.exp.dom
##    <chr>               <dbl>    <dbl>     <dbl> <dbl> <dbl>      <dbl>
##  1 230440005080062-001     1        1         3 -3.73 -38.5       4.13
##  2 230440005080062-002     1        0         3 -3.73 -38.5       4.13
##  3 230440005080062-003     1        1         3 -3.73 -38.5       4.13
##  4 230440005080062-004     1        1         2 -3.73 -38.5       4.13
##  5 230440005080062-005     1        0         1 -3.73 -38.5       4.13
##  6 230440005080062-006     1        0         1 -3.73 -38.5       4.13
##  7 230440005080062-007     1        1         3 -3.73 -38.5       4.13
##  8 230440005080062-008     1        0         2 -3.73 -38.5       4.13
##  9 230440005080062-009     1        1         2 -3.73 -38.5       4.13
## 10 230440005080062-010     1        1         1 -3.73 -38.5       1.95
## # … with 18,543 more rows
…
acess

## # A tibble: 253 x 2
##     zona  tempo
##    <dbl>  <dbl>
##  1     1 77571.
##  2     2 85447.
##  3     3 72420.
##  4     4 75937.
##  5     5 80684.
##  6     6 82417.
##  7     7 92016.
##  8     8 85119.
##  9     9 85198.
## 10    10 75834.
## # … with 243 more rows
…
dad.agr$tempo[is.na(dad.agr$tempo)] <- mean(dad.agr$tempo, na.rm = TRUE)

remove(getmode)

# Remocao do outlier
dad.agr <- dad.agr[-253,] # nesta amostra, o outlier é a zona 253
# Remocao do outlier

dad.agr

## # A tibble: 254 x 7
##     zona veiculos moradores viagens   lat  long  tempo
##    <dbl>    <dbl>     <dbl>   <dbl> <dbl> <dbl>  <dbl>
##  1     1    0.671      2.23    1.73 -3.73 -38.5 77571.
##  2     2    0.623      2.40    1.38 -3.73 -38.5 85447.
##  3     3    0.661      2.18    1.36 -3.74 -38.5 72420.
##  4     4    0.662      2.23    1.51 -3.73 -38.5 75937.
##  5     5    0.610      2.56    1.62 -3.72 -38.5 80684.
##  6     6    0.637      2.82    2.10 -3.72 -38.5 82417.
##  7     7    1.10       1.85    1.49 -3.72 -38.5 92016.
##  8     8    0.939      2.43    1.38 -3.72 -38.5 85119.
##  9     9    0.756      2.42    1.92 -3.75 -38.5 85198.
## 10    10    0.814      2.41    1.49 -3.74 -38.5 75834.
## # … with 244 more rows
…
